<svg width="803" height="451" viewBox="0 0 803 451" fill="none" xmlns="http://www.w3.org/2000/svg">
<path d="M130 244C80 180.5 0.5 0.5 0.5 0.5H813V450.5C813 450.5 663.5 381.5 489.5 371.5C315.5 361.5 180 307.5 130 244Z" fill="#508CFA"/>
</svg>
